%YAML 1.1
%TAG !u! tag:unity3d.com,2011:
--- !u!1 &5828709906018188953
GameObject:
  m_ObjectHideFlags: 0
  m_CorrespondingSourceObject: {fileID: 0}
  m_PrefabInstance: {fileID: 0}
  m_PrefabAsset: {fileID: 0}
  serializedVersion: 6
  m_Component:
  - component: {fileID: 6604648062733509667}
  - component: {fileID: 7784392785900923782}
  - component: {fileID: 5468285527846035276}
  m_Layer: 0
  m_Name: shooting_star
  m_TagString: Untagged
  m_Icon: {fileID: 0}
  m_NavMeshLayer: 0
  m_StaticEditorFlags: 0
  m_IsActive: 1
--- !u!4 &6604648062733509667
Transform:
  m_ObjectHideFlags: 0
  m_CorrespondingSourceObject: {fileID: 0}
  m_PrefabInstance: {fileID: 0}
  m_PrefabAsset: {fileID: 0}
  m_GameObject: {fileID: 5828709906018188953}
  m_LocalRotation: {x: -0, y: -0, z: -0, w: 1}
  m_LocalPosition: {x: 515.42, y: 8.74, z: -46.21997}
  m_LocalScale: {x: 1.1, y: 1.1, z: 1.10104}
  m_ConstrainProportionsScale: 0
  m_Children: []
  m_Father: {fileID: 0}
  m_RootOrder: 0
  m_LocalEulerAnglesHint: {x: 0, y: 0, z: 0}
--- !u!33 &7784392785900923782
MeshFilter:
  m_ObjectHideFlags: 0
  m_CorrespondingSourceObject: {fileID: 0}
  m_PrefabInstance: {fileID: 0}
  m_PrefabAsset: {fileID: 0}
  m_GameObject: {fileID: 5828709906018188953}
  m_Mesh: {fileID: 3432452022067073961, guid: 14b215c49aa9fa64aa5673818423a36c, type: 3}
--- !u!23 &5468285527846035276
MeshRenderer:
  m_ObjectHideFlags: 0
  m_CorrespondingSourceObject: {fileID: 0}
  m_PrefabInstance: {fileID: 0}
  m_PrefabAsset: {fileID: 0}
  m_GameObject: {fileID: 5828709906018188953}
  m_Enabled: 1
  m_CastShadows: 1
  m_ReceiveShadows: 1
  m_DynamicOccludee: 1
  m_StaticShadowCaster: 0
  m_MotionVectors: 1
  m_LightProbeUsage: 1
  m_ReflectionProbeUsage: 1
  m_RayTracingMode: 2
  m_RayTraceProcedural: 0
  m_RenderingLayerMask: 1
  m_RendererPriority: 0
  m_Materials:
  - {fileID: -7805965318761107941, guid: 14b215c49aa9fa64aa5673818423a36c, type: 3}
  - {fileID: -1536728567806347063, guid: 14b215c49aa9fa64aa5673818423a36c, type: 3}
  - {fileID: 9198169711335511959, guid: 14b215c49aa9fa64aa5673818423a36c, type: 3}
  - {fileID: -8896624839919815055, guid: 14b215c49aa9fa64aa5673818423a36c, type: 3}
  - {fileID: -8240757305777103108, guid: 14b215c49aa9fa64aa5673818423a36c, type: 3}
  - {fileID: -6800254649786212609, guid: 14b215c49aa9fa64aa5673818423a36c, type: 3}
  - {fileID: -5825676124528932029, guid: 14b215c49aa9fa64aa5673818423a36c, type: 3}
  m_StaticBatchInfo:
    firstSubMesh: 0
    subMeshCount: 0
  m_StaticBatchRoot: {fileID: 0}
  m_ProbeAnchor: {fileID: 0}
  m_LightProbeVolumeOverride: {fileID: 0}
  m_ScaleInLightmap: 1
  m_ReceiveGI: 1
  m_PreserveUVs: 0
  m_IgnoreNormalsForChartDetection: 0
  m_ImportantGI: 0
  m_StitchLightmapSeams: 1
  m_SelectedEditorRenderState: 3
  m_MinimumChartSize: 4
  m_AutoUVMaxDistance: 0.5
  m_AutoUVMaxAngle: 89
  m_LightmapParameters: {fileID: 0}
  m_SortingLayerID: 0
  m_SortingLayer: 0
  m_SortingOrder: 0
  m_AdditionalVertexStreams: {fileID: 0}
